Introduction to R – Stat 320: Biostatistics
…
Use filter() to remove rows.

Use == to select rows based on equality

Use < and > to select rows based on inequality

Use <= and >= to select rows based on inequality/equality.

filter(lead, Group == "control")

# A tibble: 78 × 41
      ID area  ageyrs sex   iqv_inf iqv_comp iqv_ar iqv_ds iqv_raw iqp_pc iqp_bd
   <dbl> <chr>  <dbl> <chr>   <dbl>    <dbl>  <dbl>  <dbl>   <dbl>  <dbl>  <dbl>
 1   101 2.5-…  11.1  male        3        4      3      5      15     10      8
 2   102 2.5-…   9.42 male        7        9      7      6      29      8      7
 3   103 2.5-…  11.1  male        4        9      5      3      21     10      7
 4   104 1-2.5   6.92 male        4        6      6      6      22      5      8
 5   105 0-1    11.2  male        5        4      8      5      22      5     10
 6   106 1-2.5   6.5  male        5       12     11      9      37     14      7
 7   107 2.5-…   6.92 male        7        9     10      7      33     10      8
 8   108 0-1    15    fema…       3        1      3      6      13      6      2
 9   109 1-2.5   7.17 fema…      13       10     14     13      50      8     15
10   110 1-2.5   7.25 male        7        9     12      9      37      6      9
# ℹ 68 more rows
# ℹ 30 more variables: iqp_oa <dbl>, iqp_cod <dbl>, iqp_raw <dbl>,
#   hh_index <dbl>, iqv <dbl>, iqp <dbl>, iqf <dbl>, iq_type <chr>,
#   lead_grp <chr>, Group <chr>, ld72 <dbl>, ld73 <dbl>, fst2yrs <chr>,
#   totyrs <dbl>, pica <chr>, colic <chr>, clumsi <chr>, irrit <chr>,
#   convul <chr>, `_2plat_r` <dbl>, `_2plar_l` <dbl>, visrea_r <dbl>,
#   visrea_l <dbl>, audrea_r <dbl>, audrea_l <dbl>, fwt_r <dbl>, fwt_l <dbl>, …
…
